…
ℹ Use `spec()` to retrieve the full column specification for this data.
ℹ Specify the column types or set `show_col_types = FALSE` to quiet this message.
      individualID individualIdSource            species                sex 
             FALSE              FALSE              FALSE              FALSE 
              race          ethnicity     yearsEducation           ageDeath 
             FALSE              FALSE               TRUE              FALSE 
        causeDeath        mannerDeath       apoeGenotype                pmi 
              TRUE               TRUE               TRUE              FALSE 
                pH        brainWeight          diagnosis  diagnosisCriteria 
              TRUE               TRUE              FALSE               TRUE 
             CERAD              Braak 
              TRUE               TRUE 
# A tibble: 411 × 9
   individualID  individualIdSource species sex   race  ethnicity ageDeath pmi  
   <chr>         <chr>              <chr>   <chr> <chr> <chr>     <chr>    <tim>
 1 HBDK_17_002_… BEB_Miller         Human   male  White NHL       79          NA
 2 HBGM_17_001_… BEB_Miller         Human   male  White NHL       89+         NA
 3 HBGQ_17_001_… BEB_Miller         Human   fema… White NHL       89+         NA
 4 HBHE_17_001_… BEB_Miller         Human   fema… White NHL       81          NA
 5 HBHJ_17_001_… BEB_Miller         Human   fema… White NHL       79          NA
 6 HBHV_17_001_… BEB_Miller         Human   fema… White NHL       79          NA
 7 HBIE_17_001_… BEB_Miller         Human   male  White NHL       80          NA
 8 HBJE_17_001_… BEB_Miller         Human   male  White NHL       80          NA
 9 Hct15HAG_17_… BEB_Miller         Human   fema… White NHL       86          NA
10 Hct15HAL_17_… BEB_Miller         Human   male  White NHL       61          NA
# ℹ 401 more rows
# ℹ 1 more variable: diagnosis <chr>
# A tibble: 411 × 10
   individualID  individualIdSource species sex   race  ethnicity ageDeath pmi  
   <chr>         <fct>              <fct>   <fct> <fct> <fct>     <chr>    <tim>
 1 HBDK_17_002_… BEB_Miller         Human   male  White NHL       79          NA
 2 HBGM_17_001_… BEB_Miller         Human   male  White NHL       89+         NA
 3 HBGQ_17_001_… BEB_Miller         Human   fema… White NHL       89+         NA
 4 HBHE_17_001_… BEB_Miller         Human   fema… White NHL       81          NA
 5 HBHJ_17_001_… BEB_Miller         Human   fema… White NHL       79          NA
 6 HBHV_17_001_… BEB_Miller         Human   fema… White NHL       79          NA
 7 HBIE_17_001_… BEB_Miller         Human   male  White NHL       80          NA
 8 HBJE_17_001_… BEB_Miller         Human   male  White NHL       80          NA
 9 Hct15HAG_17_… BEB_Miller         Human   fema… White NHL       86          NA
10 Hct15HAL_17_… BEB_Miller         Human   male  White NHL       61          NA
# ℹ 401 more rows
# ℹ 2 more variables: diagnosis <fct>, ageDeath_num <dbl>
…
            FALSE             FALSE             FALSE             FALSE 
           tissue      BrodmannArea      sampleStatus      tissueWeight 
            FALSE              TRUE             FALSE              TRUE 
     tissueVolume nucleicAcidSource          cellType      fastingState 
             TRUE             FALSE              TRUE              TRUE 
     isPostMortem       samplingAge  samplingAgeUnits       visitNumber 
            FALSE             FALSE             FALSE              TRUE 
            assay 
            FALSE 
Warning message:
There was 1 warning in `mutate()`.
ℹ In argument: `ageDeath_num = as.numeric(gsub("\\+", "", samplingAge))`.
Caused by warning:
! NAs introduced by coercion 
# A tibble: 516 × 11
   individualID       specimenID      specimenIdSource organ tissue sampleStatus
   <chr>              <chr>           <fct>            <fct> <fct>  <fct>       
 1 HBDK_17_002_FC     LBPSEMA4BRAIN5… BEB_Miller       brain dorso… frozen      
 2 HBGM_17_001_FC     LBPSEMA4BRAIN0… BEB_Miller       brain dorso… frozen      
 3 HBGQ_17_001_FC     LBPSEMA4BRAIN2… BEB_Miller       brain dorso… frozen      
 4 HBHE_17_001_FC     LBPSEMA4BRAIN5… BEB_Miller       brain dorso… frozen      
 5 HBHJ_17_001_FC     LBPSEMA4BRAIN5… BEB_Miller       brain dorso… frozen      
 6 HBHV_17_001_FC     LBPSEMA4BRAIN3… BEB_Miller       brain dorso… frozen      
 7 HBIE_17_001_FC     LBPSEMA4BRAIN5… BEB_Miller       brain dorso… frozen      
 8 HBJE_17_001_FC     LBPSEMA4BRAIN3… BEB_Miller       brain dorso… frozen      
 9 Hct15HAG_17_001_FC LBPSEMA4BRAIN7… BEB_Miller       brain dorso… frozen      
10 Hct15HAL_17_003_FC LBPSEMA4BRAIN2… BEB_Miller       brain dorso… frozen      
# ℹ 506 more rows
# ℹ 5 more variables: nucleicAcidSource <fct>, isPostMortem <lgl>,
#   samplingAgeUnits <fct>, assay <fct>, ageDeath_num <dbl>
…
ℹ Use `spec()` to retrieve the full column specification for this data.
ℹ Specify the column types or set `show_col_types = FALSE` to quiet this message.
# A tibble: 516 × 13
   specimenID   platform   RIN rnaBatch libraryBatch sequencingBatch libraryPrep
   <chr>        <fct>    <dbl> <fct>    <fct>        <fct>           <fct>      
 1 LBPSEMA4BRA… Illumin…   7.1 LBPSEMA… db3          sb5             rRNAdeplet…
 2 LBPSEMA4BRA… Illumin…   7.5 LBPSEMA… db20         sb2             rRNAdeplet…
 3 LBPSEMA4BRA… Illumin…   6.4 LBPSEMA… db9          sb7             rRNAdeplet…
 4 LBPSEMA4BRA… Illumin…   7.1 LBPSEMA… db11         sb3             rRNAdeplet…
 5 LBPSEMA4BRA… Illumin…   6.2 LBPSEMA… db22         sb6             rRNAdeplet…
 6 LBPSEMA4BRA… Illumin…   5.8 LBPSEMA… db14         sb4             rRNAdeplet…
 7 LBPSEMA4BRA… Illumin…   6.9 LBPSEMA… db18         sb8             rRNAdeplet…
 8 LBPSEMA4BRA… Illumin…   6.9 LBPSEMA… db14         sb4             rRNAdeplet…
 9 LBPSEMA4BRA… Illumin…   7   LBPSEMA… db8          sb7             rRNAdeplet…
10 LBPSEMA4BRA… Illumin…   8.7 LBPSEMA… db22         sb6             rRNAdeplet…
# ℹ 506 more rows
# ℹ 6 more variables: libraryPreparationMethod <fct>, isStranded <lgl>,
#   readStrandOrigin <fct>, runType <fct>, readLength <dbl>, assay <fct>
…
